-------------------------------------------------------------------------------
Test set: com.example.StudentInformationSystemWithSpring.controller.StudentControllerTest
-------------------------------------------------------------------------------
Tests run: 10, Failures: 0, Errors: 0, Skipped: 0, Time elapsed: 0.01 s - in com.example.StudentInformationSystemWithSpring.controller.StudentControllerTest
