C:\Users\samuel.guban\Desktop\SaM\Bootcamp\Docker\bootcamp-24-week-7-exam\StudentInformationSystem\src\test\java\com\example\StudentInformationSystemWithSpring\controller\services\SectionServiceTest.java
C:\Users\samuel.guban\Desktop\SaM\Bootcamp\Docker\bootcamp-24-week-7-exam\StudentInformationSystem\src\test\java\com\example\StudentInformationSystemWithSpring\controller\StudentControllerTest.java
C:\Users\samuel.guban\Desktop\SaM\Bootcamp\Docker\bootcamp-24-week-7-exam\StudentInformationSystem\src\test\java\com\example\StudentInformationSystemWithSpring\StudentInformationSystemWithSpringApplicationTests.java
